"stride=512
0.00049 0.858
0.00098 0.861
0.00195 0.857
0.00293 0.857
0.00391 0.858
0.00586 0.858
0.00781 0.858
0.00977 0.858
0.01172 0.858
0.01367 0.858
0.01562 0.861
0.01758 0.858
0.01953 0.858
0.02148 0.858
0.02344 0.858
0.02539 0.858
0.02734 0.858
0.02930 0.859
0.03125 0.858
0.03516 0.859
0.03906 0.859
0.04297 0.859
0.04688 0.859
0.05078 0.859
0.05469 0.859
0.05859 0.859
0.06250 0.859
0.07031 3.740
0.07812 3.739
0.08594 3.740
0.09375 3.740
0.10156 3.741
0.10938 3.740
0.11719 3.741
0.12500 3.740
0.14062 3.740
0.15625 3.739
0.17188 3.739
0.18750 3.739
0.20312 3.744
0.21875 3.743
0.23438 3.744
0.25000 3.741
0.28125 3.741
0.31250 3.743
0.34375 3.743
0.37500 3.743
0.40625 3.744
0.43750 3.744
0.46875 3.778
0.50000 3.776
0.56250 7.814
0.62500 7.813
0.68750 7.813
0.75000 7.813
0.81250 7.813
0.87500 7.814
0.93750 7.813
1.00000 7.813
1.12500 7.881
1.25000 7.874
1.37500 7.813
1.50000 7.813
1.62500 7.813
1.75000 7.813
1.87500 7.813
2.00000 7.813
2.25000 7.813
2.50000 7.843
2.75000 7.814
3.00000 7.814
3.25000 7.817
3.50000 7.819
3.75000 7.819
4.00000 7.823
4.50000 7.835
5.00000 9.728
5.50000 9.912
6.00000 14.466
6.50000 14.236
7.00000 16.884
7.50000 22.310
8.00000 24.793
9.00000 27.389
10.00000 30.282
11.00000 32.728
12.00000 35.005
13.00000 37.568
14.00000 37.765
15.00000 37.765
16.00000 37.776
18.00000 37.767
20.00000 37.774
22.00000 37.778
24.00000 37.798
26.00000 37.816
28.00000 37.862
30.00000 37.921
32.00000 37.997
36.00000 38.241
40.00000 38.711
44.00000 39.660
48.00000 41.247
52.00000 43.356
56.00000 46.024
60.00000 49.242
64.00000 52.646
72.00000 84.945
80.00000 86.068
88.00000 86.950
96.00000 87.682
104.00000 88.284
112.00000 88.848
120.00000 89.283
128.00000 89.664
144.00000 90.427
160.00000 90.937
176.00000 91.350
192.00000 91.770
208.00000 92.054
224.00000 92.309
240.00000 92.599
256.00000 92.751
288.00000 93.139
320.00000 93.402
352.00000 93.601
384.00000 93.780
416.00000 93.968
448.00000 94.058
480.00000 94.188
512.00000 94.309
576.00000 94.508
640.00000 94.612
704.00000 94.743
768.00000 94.791
832.00000 94.884
896.00000 94.984
960.00000 95.000
1024.00000 95.068
1152.00000 95.178
1280.00000 95.200
1408.00000 95.248
1536.00000 95.346
1664.00000 95.342
1792.00000 95.385
1920.00000 95.444

