"stride=64
0.00049 0.861
0.00098 0.858
0.00195 0.857
0.00293 0.858
0.00391 0.858
0.00586 0.858
0.00781 0.858
0.00977 0.859
0.01172 0.858
0.01367 0.858
0.01562 0.858
0.01758 0.858
0.01953 0.859
0.02148 0.859
0.02344 0.859
0.02539 0.859
0.02734 0.859
0.02930 0.859
0.03125 0.859
0.03516 0.859
0.03906 0.859
0.04297 0.859
0.04688 0.859
0.05078 0.859
0.05469 0.859
0.05859 0.860
0.06250 0.859
0.07031 2.808
0.07812 2.809
0.08594 2.802
0.09375 2.801
0.10156 2.799
0.10938 2.798
0.11719 2.800
0.12500 2.795
0.14062 2.800
0.15625 2.795
0.17188 2.796
0.18750 2.792
0.20312 2.795
0.21875 2.796
0.23438 2.795
0.25000 2.793
0.28125 2.794
0.31250 2.794
0.34375 2.794
0.37500 2.798
0.40625 2.798
0.43750 2.796
0.46875 3.488
0.50000 3.470
0.56250 6.360
0.62500 6.360
0.68750 6.360
0.75000 6.360
0.81250 6.360
0.87500 6.360
0.93750 6.360
1.00000 6.359
1.12500 6.360
1.25000 6.360
1.37500 6.360
1.50000 6.360
1.62500 6.360
1.75000 6.359
1.87500 6.360
2.00000 6.360
2.25000 6.360
2.50000 6.360
2.75000 6.360
3.00000 6.361
3.25000 6.361
3.50000 6.361
3.75000 6.361
4.00000 6.362
4.50000 6.363
5.00000 7.352
5.50000 10.837
6.00000 10.944
6.50000 11.957
7.00000 12.388
7.50000 12.508
8.00000 13.817
9.00000 14.162
10.00000 18.126
11.00000 20.199
12.00000 20.977
13.00000 21.845
14.00000 21.697
15.00000 21.978
16.00000 21.985
18.00000 21.977
20.00000 21.980
22.00000 21.982
24.00000 21.984
26.00000 21.993
28.00000 22.005
30.00000 22.021
32.00000 22.054
36.00000 22.151
40.00000 22.316
44.00000 22.591
48.00000 23.021
52.00000 23.640
56.00000 24.501
60.00000 25.861
64.00000 27.253
72.00000 44.407
80.00000 44.780
88.00000 45.252
96.00000 45.478
104.00000 45.823
112.00000 45.956
120.00000 46.226
128.00000 46.312
144.00000 46.665
160.00000 46.885
176.00000 47.053
192.00000 47.202
208.00000 47.316
224.00000 47.419
240.00000 47.512
256.00000 47.591
288.00000 47.715
320.00000 47.825
352.00000 47.911
384.00000 47.985
416.00000 48.045
448.00000 48.095
480.00000 48.138
512.00000 48.179
576.00000 48.249
640.00000 48.300
704.00000 48.342
768.00000 48.379
832.00000 48.408
896.00000 48.434
960.00000 48.455
1024.00000 48.476
1152.00000 48.508
1280.00000 48.533
1408.00000 48.554
1536.00000 48.574
1664.00000 48.588
1792.00000 48.600
1920.00000 48.609

