"stride=512
0.00049 0.858
0.00098 0.858
0.00195 0.858
0.00293 0.858
0.00391 0.858
0.00586 0.858
0.00781 0.858
0.00977 0.858
0.01172 0.858
0.01367 0.858
0.01562 0.858
0.01758 0.858
0.01953 0.859
0.02148 0.859
0.02344 0.859
0.02539 0.859
0.02734 0.859
0.02930 0.859
0.03125 0.859
0.03516 0.860
0.03906 0.859
0.04297 0.859
0.04688 0.859
0.05078 0.859
0.05469 0.859
0.05859 0.859
0.06250 0.860
0.07031 3.729
0.07812 3.729
0.08594 3.728
0.09375 3.729
0.10156 3.730
0.10938 3.730
0.11719 3.730
0.12500 3.730
0.14062 3.730
0.15625 3.728
0.17188 3.728
0.18750 3.729
0.20312 3.732
0.21875 3.732
0.23438 3.732
0.25000 3.731
0.28125 3.731
0.31250 3.733
0.34375 3.732
0.37500 3.731
0.40625 3.733
0.43750 3.734
0.46875 3.765
0.50000 3.762
0.56250 7.809
0.62500 7.808
0.68750 7.808
0.75000 7.808
0.81250 7.808
0.87500 7.808
0.93750 7.808
1.00000 7.808
1.12500 7.809
1.25000 7.807
1.37500 7.809
1.50000 7.808
1.62500 7.808
1.75000 7.809
1.87500 7.808
2.00000 7.808
2.25000 7.808
2.50000 7.808
2.75000 7.815
3.00000 7.817
3.25000 7.815
3.50000 7.809
3.75000 7.825
4.00000 7.819
4.50000 7.840
5.00000 7.841
5.50000 7.862
6.00000 7.884
6.50000 11.811
7.00000 10.703
7.50000 17.018
8.00000 20.883
9.00000 29.874
10.00000 34.202
11.00000 38.693
12.00000 38.694
13.00000 38.691
14.00000 38.690
15.00000 38.692
16.00000 38.688
18.00000 38.686
20.00000 38.683
22.00000 38.696
24.00000 38.708
26.00000 38.722
28.00000 38.748
30.00000 38.787
32.00000 38.858
36.00000 39.032
40.00000 39.110
44.00000 39.838
48.00000 40.668
52.00000 41.908
56.00000 43.629
60.00000 46.063
64.00000 49.246
72.00000 56.109
80.00000 60.014
88.00000 71.207
96.00000 82.461
104.00000 81.319
112.00000 78.798
120.00000 83.088
128.00000 86.682
144.00000 87.905
160.00000 87.258
176.00000 84.693
192.00000 86.009
208.00000 85.849
224.00000 85.843
240.00000 84.870
256.00000 86.415
288.00000 87.345
320.00000 86.183
352.00000 85.250
384.00000 86.622
416.00000 84.279
448.00000 85.454
480.00000 85.757
512.00000 85.681
576.00000 85.936
640.00000 86.218
704.00000 86.221
768.00000 86.086
832.00000 86.205
896.00000 86.066
960.00000 85.996
1024.00000 85.625
1152.00000 85.568
1280.00000 85.474
1408.00000 85.453
1536.00000 85.507
1664.00000 85.482
1792.00000 85.526
1920.00000 85.577

