"stride=64
0.00049 0.858
0.00098 0.858
0.00195 0.858
0.00293 0.858
0.00391 0.858
0.00586 0.858
0.00781 0.858
0.00977 0.858
0.01172 0.859
0.01367 0.859
0.01562 0.859
0.01758 0.859
0.01953 0.859
0.02148 0.859
0.02344 0.859
0.02539 0.859
0.02734 0.859
0.02930 0.859
0.03125 0.859
0.03516 0.859
0.03906 0.859
0.04297 0.860
0.04688 0.859
0.05078 0.860
0.05469 0.859
0.05859 0.860
0.06250 0.860
0.07031 2.649
0.07812 2.647
0.08594 2.646
0.09375 2.645
0.10156 2.645
0.10938 2.645
0.11719 2.643
0.12500 2.644
0.14062 2.641
0.15625 2.640
0.17188 2.641
0.18750 2.641
0.20312 2.641
0.21875 2.640
0.23438 2.641
0.25000 2.641
0.28125 2.640
0.31250 2.639
0.34375 2.639
0.37500 2.639
0.40625 2.640
0.43750 2.640
0.46875 2.658
0.50000 2.666
0.56250 3.538
0.62500 3.539
0.68750 3.539
0.75000 3.539
0.81250 3.537
0.87500 3.540
0.93750 3.537
1.00000 3.540
1.12500 3.539
1.25000 3.538
1.37500 3.539
1.50000 3.538
1.62500 3.538
1.75000 3.539
1.87500 3.537
2.00000 3.540
2.25000 3.536
2.50000 3.539
2.75000 3.539
3.00000 3.539
3.25000 3.542
3.50000 3.541
3.75000 3.541
4.00000 3.543
4.50000 3.545
5.00000 3.549
5.50000 3.759
6.00000 4.604
6.50000 4.491
7.00000 4.742
7.50000 4.974
8.00000 5.187
9.00000 5.187
10.00000 5.269
11.00000 5.544
12.00000 6.047
13.00000 6.074
14.00000 6.073
15.00000 6.067
16.00000 6.065
18.00000 6.052
20.00000 6.007
22.00000 5.976
24.00000 5.899
26.00000 5.780
28.00000 5.696
30.00000 5.483
32.00000 5.316
36.00000 4.820
40.00000 4.397
44.00000 4.153
48.00000 4.096
52.00000 4.218
56.00000 4.394
60.00000 4.559
64.00000 4.696
72.00000 4.876
80.00000 4.383
88.00000 4.380
96.00000 4.404
104.00000 4.395
112.00000 4.361
120.00000 4.384
128.00000 4.383
144.00000 4.392
160.00000 4.394
176.00000 4.401
192.00000 4.394
208.00000 4.404
224.00000 4.404
240.00000 4.406
256.00000 4.413
288.00000 4.412
320.00000 4.416
352.00000 4.415
384.00000 4.445
416.00000 4.440
448.00000 4.424
480.00000 4.427
512.00000 4.425
576.00000 4.425
640.00000 4.439
704.00000 4.452
768.00000 4.441
832.00000 4.435
896.00000 4.453
960.00000 4.444
1024.00000 4.442
1152.00000 4.464
1280.00000 4.449
1408.00000 4.457
1536.00000 4.458
1664.00000 4.469
1792.00000 4.453
1920.00000 4.471

