"stride=128
0.00049 0.858
0.00098 0.858
0.00195 0.857
0.00293 0.857
0.00391 0.857
0.00586 0.857
0.00781 0.857
0.00977 0.857
0.01172 0.858
0.01367 0.858
0.01562 0.857
0.01758 0.858
0.01953 0.858
0.02148 0.858
0.02344 0.859
0.02539 0.859
0.02734 0.858
0.02930 0.859
0.03125 0.859
0.03516 0.859
0.03906 0.859
0.04297 0.859
0.04688 0.858
0.05078 0.859
0.05469 0.859
0.05859 0.859
0.06250 0.860
0.07031 3.719
0.07812 3.845
0.08594 3.844
0.09375 3.844
0.10156 3.844
0.10938 3.844
0.11719 3.843
0.12500 3.844
0.14062 3.844
0.15625 3.842
0.17188 3.843
0.18750 3.844
0.20312 3.842
0.21875 3.843
0.23438 3.842
0.25000 3.842
0.28125 3.842
0.31250 3.841
0.34375 3.842
0.37500 3.842
0.40625 3.843
0.43750 3.845
0.46875 3.911
0.50000 3.926
0.56250 7.313
0.62500 7.306
0.68750 7.316
0.75000 7.318
0.81250 7.312
0.87500 7.314
0.93750 7.308
1.00000 7.304
1.12500 7.312
1.25000 7.300
1.37500 7.303
1.50000 7.305
1.62500 7.307
1.75000 7.302
1.87500 7.308
2.00000 7.312
2.25000 7.315
2.50000 7.309
2.75000 7.314
3.00000 7.315
3.25000 7.315
3.50000 7.311
3.75000 7.313
4.00000 7.309
4.50000 7.325
5.00000 7.692
5.50000 7.918
6.00000 8.846
6.50000 8.901
7.00000 8.747
7.50000 9.216
8.00000 9.860
9.00000 10.570
10.00000 11.039
11.00000 12.038
12.00000 12.056
13.00000 12.248
14.00000 12.246
15.00000 12.247
16.00000 12.255
18.00000 12.245
20.00000 12.242
22.00000 12.233
24.00000 12.222
26.00000 12.204
28.00000 12.200
30.00000 12.185
32.00000 12.156
36.00000 12.110
40.00000 12.074
44.00000 12.174
48.00000 12.578
52.00000 13.245
56.00000 14.099
60.00000 15.022
64.00000 15.875
72.00000 17.482
80.00000 18.073
88.00000 16.905
96.00000 19.106
104.00000 19.203
112.00000 19.247
120.00000 19.328
128.00000 19.356
144.00000 19.436
160.00000 19.486
176.00000 19.549
192.00000 19.591
208.00000 19.614
224.00000 19.649
240.00000 19.682
256.00000 19.709
288.00000 19.738
320.00000 19.763
352.00000 19.814
384.00000 19.819
416.00000 19.837
448.00000 19.850
480.00000 19.855
512.00000 19.866
576.00000 19.881
640.00000 19.940
704.00000 19.942
768.00000 19.949
832.00000 19.947
896.00000 19.954
960.00000 19.944
1024.00000 19.952
1152.00000 19.955
1280.00000 19.956
1408.00000 19.964
1536.00000 19.967
1664.00000 19.968
1792.00000 19.971
1920.00000 19.968

