"stride=1024
0.00098 0.861
0.00195 0.858
0.00293 0.857
0.00391 0.858
0.00586 0.858
0.00781 0.857
0.00977 0.858
0.01172 0.857
0.01367 0.858
0.01562 0.857
0.01758 0.858
0.01953 0.858
0.02148 0.858
0.02344 0.858
0.02539 0.858
0.02734 0.858
0.02930 0.858
0.03125 0.858
0.03516 0.859
0.03906 0.858
0.04297 0.859
0.04688 0.859
0.05078 0.859
0.05469 0.859
0.05859 0.859
0.06250 0.859
0.07031 3.731
0.07812 3.731
0.08594 3.731
0.09375 3.731
0.10156 3.722
0.10938 3.722
0.11719 3.723
0.12500 3.724
0.14062 3.723
0.15625 3.725
0.17188 3.722
0.18750 3.722
0.20312 3.723
0.21875 3.723
0.23438 3.723
0.25000 3.723
0.28125 3.723
0.31250 3.721
0.34375 3.721
0.37500 3.722
0.40625 3.726
0.43750 3.726
0.46875 3.790
0.50000 3.783
0.56250 7.814
0.62500 7.814
0.68750 7.815
0.75000 7.815
0.81250 7.814
0.87500 7.814
0.93750 7.814
1.00000 7.814
1.12500 7.814
1.25000 7.814
1.37500 7.814
1.50000 7.814
1.62500 7.814
1.75000 7.814
1.87500 7.814
2.00000 7.813
2.25000 7.814
2.50000 7.815
2.75000 7.817
3.00000 7.822
3.25000 7.829
3.50000 7.839
3.75000 7.849
4.00000 7.857
4.50000 7.902
5.00000 7.901
5.50000 7.901
6.00000 7.901
6.50000 7.906
7.00000 9.441
7.50000 11.449
8.00000 18.392
9.00000 26.975
10.00000 33.896
11.00000 37.373
12.00000 37.759
13.00000 37.760
14.00000 37.757
15.00000 37.755
16.00000 37.763
18.00000 37.747
20.00000 37.744
22.00000 37.743
24.00000 37.751
26.00000 37.778
28.00000 37.794
30.00000 37.832
32.00000 37.898
36.00000 38.135
40.00000 38.688
44.00000 39.883
48.00000 41.608
52.00000 43.446
56.00000 46.662
60.00000 50.067
64.00000 52.241
72.00000 59.355
80.00000 66.871
88.00000 71.632
96.00000 85.761
104.00000 86.182
112.00000 86.704
120.00000 87.088
128.00000 87.493
144.00000 88.066
160.00000 88.535
176.00000 88.925
192.00000 89.232
208.00000 89.505
224.00000 89.724
240.00000 89.928
256.00000 90.091
288.00000 90.380
320.00000 90.627
352.00000 90.798
384.00000 90.946
416.00000 91.099
448.00000 91.216
480.00000 91.312
512.00000 91.390
576.00000 91.524
640.00000 91.664
704.00000 91.738
768.00000 91.815
832.00000 91.879
896.00000 91.937
960.00000 91.974
1024.00000 92.019
1152.00000 92.127
1280.00000 92.171
1408.00000 92.217
1536.00000 92.251
1664.00000 92.285
1792.00000 92.311
1920.00000 92.328

