"stride=128
0.00049 0.857
0.00098 0.858
0.00195 0.861
0.00293 0.861
0.00391 0.858
0.00586 0.857
0.00781 0.857
0.00977 0.858
0.01172 0.858
0.01367 0.858
0.01562 0.858
0.01758 0.858
0.01953 0.859
0.02148 0.858
0.02344 0.858
0.02539 0.859
0.02734 0.858
0.02930 0.858
0.03125 0.859
0.03516 0.858
0.03906 0.858
0.04297 0.858
0.04688 0.859
0.05078 0.858
0.05469 0.859
0.05859 0.859
0.06250 0.860
0.07031 3.922
0.07812 4.049
0.08594 4.048
0.09375 4.049
0.10156 4.049
0.10938 4.049
0.11719 4.048
0.12500 4.048
0.14062 4.048
0.15625 4.047
0.17188 4.047
0.18750 4.048
0.20312 4.047
0.21875 4.047
0.23438 4.045
0.25000 4.046
0.28125 4.046
0.31250 4.046
0.34375 4.047
0.37500 4.047
0.40625 4.048
0.43750 4.050
0.46875 4.095
0.50000 4.105
0.56250 6.436
0.62500 6.431
0.68750 6.438
0.75000 6.434
0.81250 6.430
0.87500 6.434
0.93750 6.436
1.00000 6.431
1.12500 6.434
1.25000 6.433
1.37500 6.428
1.50000 6.431
1.62500 6.436
1.75000 6.431
1.87500 6.427
2.00000 6.432
2.25000 6.428
2.50000 6.428
2.75000 6.429
3.00000 6.428
3.25000 6.431
3.50000 6.436
3.75000 6.433
4.00000 6.432
4.50000 6.434
5.00000 6.438
5.50000 6.444
6.00000 6.455
6.50000 6.458
7.00000 6.727
7.50000 6.950
8.00000 7.811
9.00000 8.701
10.00000 9.476
11.00000 9.784
12.00000 9.777
13.00000 9.779
14.00000 9.774
15.00000 9.776
16.00000 9.773
18.00000 9.769
20.00000 9.762
22.00000 9.744
24.00000 9.717
26.00000 9.689
28.00000 9.617
30.00000 9.503
32.00000 9.473
36.00000 9.203
40.00000 8.970
44.00000 8.919
48.00000 9.165
52.00000 9.611
56.00000 10.098
60.00000 10.592
64.00000 11.062
72.00000 11.965
80.00000 12.220
88.00000 11.772
96.00000 12.592
104.00000 12.646
112.00000 12.676
120.00000 12.719
128.00000 12.738
144.00000 12.789
160.00000 12.826
176.00000 12.856
192.00000 12.876
208.00000 12.908
224.00000 12.923
240.00000 12.936
256.00000 12.961
288.00000 12.979
320.00000 12.987
352.00000 13.022
384.00000 13.030
416.00000 13.037
448.00000 13.041
480.00000 13.041
512.00000 13.071
576.00000 13.076
640.00000 13.080
704.00000 13.086
768.00000 13.087
832.00000 13.086
896.00000 13.088
960.00000 13.135
1024.00000 13.134
1152.00000 13.130
1280.00000 13.127
1408.00000 13.122
1536.00000 13.121
1664.00000 13.120
1792.00000 13.120
1920.00000 13.121

