"stride=256
0.00049 0.858
0.00098 0.858
0.00195 0.857
0.00293 0.857
0.00391 0.857
0.00586 0.857
0.00781 0.858
0.00977 0.858
0.01172 0.858
0.01367 0.857
0.01562 0.858
0.01758 0.858
0.01953 0.858
0.02148 0.858
0.02344 0.858
0.02539 0.858
0.02734 0.858
0.02930 0.859
0.03125 0.858
0.03516 0.859
0.03906 0.859
0.04297 0.859
0.04688 0.859
0.05078 0.859
0.05469 0.859
0.05859 0.859
0.06250 0.859
0.07031 3.729
0.07812 3.728
0.08594 3.728
0.09375 3.729
0.10156 3.732
0.10938 3.732
0.11719 3.732
0.12500 3.735
0.14062 3.730
0.15625 3.733
0.17188 3.732
0.18750 3.735
0.20312 3.732
0.21875 3.732
0.23438 3.731
0.25000 3.730
0.28125 3.732
0.31250 3.731
0.34375 3.731
0.37500 3.733
0.40625 3.732
0.43750 3.735
0.46875 3.778
0.50000 3.784
0.56250 7.798
0.62500 7.800
0.68750 7.799
0.75000 7.799
0.81250 7.799
0.87500 7.799
0.93750 7.801
1.00000 7.800
1.12500 7.800
1.25000 7.800
1.37500 7.801
1.50000 7.800
1.62500 7.800
1.75000 7.801
1.87500 7.800
2.00000 7.799
2.25000 7.799
2.50000 7.799
2.75000 7.800
3.00000 7.801
3.25000 7.802
3.50000 7.805
3.75000 7.804
4.00000 7.807
4.50000 7.812
5.00000 7.812
5.50000 7.812
6.00000 7.818
6.50000 9.112
7.00000 10.618
7.50000 10.366
8.00000 17.836
9.00000 27.640
10.00000 35.115
11.00000 37.021
12.00000 37.493
13.00000 37.488
14.00000 37.481
15.00000 37.460
16.00000 37.458
18.00000 37.421
20.00000 37.400
22.00000 37.349
24.00000 37.279
26.00000 37.288
28.00000 37.245
30.00000 37.204
32.00000 37.150
36.00000 36.918
40.00000 36.715
44.00000 36.485
48.00000 36.362
52.00000 36.860
56.00000 37.934
60.00000 39.781
64.00000 41.160
72.00000 46.028
80.00000 50.865
88.00000 53.558
96.00000 57.481
104.00000 64.289
112.00000 65.122
120.00000 67.607
128.00000 69.062
144.00000 66.488
160.00000 67.529
176.00000 67.007
192.00000 67.970
208.00000 67.198
224.00000 68.813
240.00000 67.546
256.00000 68.241
288.00000 67.590
320.00000 67.957
352.00000 68.713
384.00000 68.680
416.00000 68.484
448.00000 68.436
480.00000 68.410
512.00000 68.493
576.00000 68.441
640.00000 68.280
704.00000 68.286
768.00000 68.275
832.00000 68.232
896.00000 68.208
960.00000 68.164
1024.00000 68.139
1152.00000 68.070
1280.00000 68.077
1408.00000 68.037
1536.00000 67.986
1664.00000 67.984
1792.00000 67.966
1920.00000 67.941

